// Jest Snapshot v1, https://goo.gl/fbAQLP

exports[`given the user is not signed in,it should render the header with a sign in button 1`] = `
ShallowWrapper {
  "complexSelector": ComplexSelector {
    "buildPredicate": [Function],
    "childrenOfNode": [Function],
    "findWhereUnwrapped": [Function],
  },
  "length": 1,
  "node": <div
    className="flex pa1 justify-between nowrap orange"
>
    <div
        className="flex flex-fixed black"
    >
        <Link
            className="ml1 no-underline black"
            replace={false}
            to="/"
        >
            Home
        </Link>
        <div
            className="ml1"
        >
            |
        </div>
        <Link
            className="ml1 no-underline black"
            replace={false}
            to="/teams/search"
        >
            Find teams
        </Link>
        <div
            className="ml1"
        >
            |
        </div>
        <Link
            className="ml1 no-underline black"
            replace={false}
            to="/teams/new"
        >
            New team
        </Link>
    </div>
    <div
        className="flex flex-fixed"
    >
        <Link
            className="ml1 no-underline black"
            replace={false}
            to="/sign-in"
        >
            Sign in
        </Link>
    </div>
</div>,
  "nodes": Array [
    <div
      className="flex pa1 justify-between nowrap orange"
>
      <div
            className="flex flex-fixed black"
      >
            <Link
                  className="ml1 no-underline black"
                  replace={false}
                  to="/"
            >
                  Home
            </Link>
            <div
                  className="ml1"
            >
                  |
            </div>
            <Link
                  className="ml1 no-underline black"
                  replace={false}
                  to="/teams/search"
            >
                  Find teams
            </Link>
            <div
                  className="ml1"
            >
                  |
            </div>
            <Link
                  className="ml1 no-underline black"
                  replace={false}
                  to="/teams/new"
            >
                  New team
            </Link>
      </div>
      <div
            className="flex flex-fixed"
      >
            <Link
                  className="ml1 no-underline black"
                  replace={false}
                  to="/sign-in"
            >
                  Sign in
            </Link>
      </div>
</div>,
  ],
  "options": Object {},
  "renderer": ReactShallowRenderer {
    "_instance": ShallowComponentWrapper {
      "_calledComponentWillUnmount": false,
      "_compositeType": 0,
      "_context": Object {},
      "_currentElement": <Header_ />,
      "_debugID": 1,
      "_hostContainerInfo": null,
      "_hostParent": null,
      "_instance": Header_ {
        "_reactInternalInstance": [Circular],
        "context": Object {},
        "props": Object {},
        "refs": Object {},
        "signOut": [Function],
        "state": null,
        "updater": Object {
          "enqueueCallback": [Function],
          "enqueueCallbackInternal": [Function],
          "enqueueElementInternal": [Function],
          "enqueueForceUpdate": [Function],
          "enqueueReplaceState": [Function],
          "enqueueSetState": [Function],
          "isMounted": [Function],
          "validateCallback": [Function],
        },
      },
      "_mountOrder": 1,
      "_pendingCallbacks": null,
      "_pendingElement": null,
      "_pendingForceUpdate": false,
      "_pendingReplaceState": false,
      "_pendingStateQueue": null,
      "_renderedComponent": NoopInternalComponent {
        "_currentElement": <div
          className="flex pa1 justify-between nowrap orange"
>
          <div
                    className="flex flex-fixed black"
          >
                    <Link
                              className="ml1 no-underline black"
                              replace={false}
                              to="/"
                    >
                              Home
                    </Link>
                    <div
                              className="ml1"
                    >
                              |
                    </div>
                    <Link
                              className="ml1 no-underline black"
                              replace={false}
                              to="/teams/search"
                    >
                              Find teams
                    </Link>
                    <div
                              className="ml1"
                    >
                              |
                    </div>
                    <Link
                              className="ml1 no-underline black"
                              replace={false}
                              to="/teams/new"
                    >
                              New team
                    </Link>
          </div>
          <div
                    className="flex flex-fixed"
          >
                    <Link
                              className="ml1 no-underline black"
                              replace={false}
                              to="/sign-in"
                    >
                              Sign in
                    </Link>
          </div>
</div>,
        "_debugID": 2,
        "_renderedOutput": <div
          className="flex pa1 justify-between nowrap orange"
>
          <div
                    className="flex flex-fixed black"
          >
                    <Link
                              className="ml1 no-underline black"
                              replace={false}
                              to="/"
                    >
                              Home
                    </Link>
                    <div
                              className="ml1"
                    >
                              |
                    </div>
                    <Link
                              className="ml1 no-underline black"
                              replace={false}
                              to="/teams/search"
                    >
                              Find teams
                    </Link>
                    <div
                              className="ml1"
                    >
                              |
                    </div>
                    <Link
                              className="ml1 no-underline black"
                              replace={false}
                              to="/teams/new"
                    >
                              New team
                    </Link>
          </div>
          <div
                    className="flex flex-fixed"
          >
                    <Link
                              className="ml1 no-underline black"
                              replace={false}
                              to="/sign-in"
                    >
                              Sign in
                    </Link>
          </div>
</div>,
      },
      "_renderedNodeType": 0,
      "_rootNodeID": 0,
      "_topLevelWrapper": null,
      "_updateBatchNumber": null,
      "_warnedAboutRefsInRender": false,
    },
    "getRenderOutput": [Function],
    "render": [Function],
  },
  "root": [Circular],
  "unrendered": <Header_ />,
}
`;

exports[`given the user is signed in,it should render the header with a sign off button 1`] = `
ShallowWrapper {
  "complexSelector": ComplexSelector {
    "buildPredicate": [Function],
    "childrenOfNode": [Function],
    "findWhereUnwrapped": [Function],
  },
  "length": 1,
  "node": <div
    className="flex pa1 justify-between nowrap orange"
>
    <div
        className="flex flex-fixed black"
    >
        <Link
            className="ml1 no-underline black"
            replace={false}
            to="/"
        >
            Home
        </Link>
        <div
            className="ml1"
        >
            |
        </div>
        <Link
            className="ml1 no-underline black"
            replace={false}
            to="/teams/search"
        >
            Find teams
        </Link>
        <div
            className="ml1"
        >
            |
        </div>
        <Link
            className="ml1 no-underline black"
            replace={false}
            to="/teams/new"
        >
            New team
        </Link>
    </div>
    <div
        className="flex flex-fixed"
    >
        <button
            className="ml1 pointer black"
            onClick={[Function]}
        >
            Sign out
        </button>
    </div>
</div>,
  "nodes": Array [
    <div
      className="flex pa1 justify-between nowrap orange"
>
      <div
            className="flex flex-fixed black"
      >
            <Link
                  className="ml1 no-underline black"
                  replace={false}
                  to="/"
            >
                  Home
            </Link>
            <div
                  className="ml1"
            >
                  |
            </div>
            <Link
                  className="ml1 no-underline black"
                  replace={false}
                  to="/teams/search"
            >
                  Find teams
            </Link>
            <div
                  className="ml1"
            >
                  |
            </div>
            <Link
                  className="ml1 no-underline black"
                  replace={false}
                  to="/teams/new"
            >
                  New team
            </Link>
      </div>
      <div
            className="flex flex-fixed"
      >
            <button
                  className="ml1 pointer black"
                  onClick={[Function]}
            >
                  Sign out
            </button>
      </div>
</div>,
  ],
  "options": Object {},
  "renderer": ReactShallowRenderer {
    "_instance": ShallowComponentWrapper {
      "_calledComponentWillUnmount": false,
      "_compositeType": 0,
      "_context": Object {},
      "_currentElement": <Header_ />,
      "_debugID": 3,
      "_hostContainerInfo": null,
      "_hostParent": null,
      "_instance": Header_ {
        "_reactInternalInstance": [Circular],
        "context": Object {},
        "props": Object {},
        "refs": Object {},
        "signOut": [Function],
        "state": null,
        "updater": Object {
          "enqueueCallback": [Function],
          "enqueueCallbackInternal": [Function],
          "enqueueElementInternal": [Function],
          "enqueueForceUpdate": [Function],
          "enqueueReplaceState": [Function],
          "enqueueSetState": [Function],
          "isMounted": [Function],
          "validateCallback": [Function],
        },
      },
      "_mountOrder": 2,
      "_pendingCallbacks": null,
      "_pendingElement": null,
      "_pendingForceUpdate": false,
      "_pendingReplaceState": false,
      "_pendingStateQueue": null,
      "_renderedComponent": NoopInternalComponent {
        "_currentElement": <div
          className="flex pa1 justify-between nowrap orange"
>
          <div
                    className="flex flex-fixed black"
          >
                    <Link
                              className="ml1 no-underline black"
                              replace={false}
                              to="/"
                    >
                              Home
                    </Link>
                    <div
                              className="ml1"
                    >
                              |
                    </div>
                    <Link
                              className="ml1 no-underline black"
                              replace={false}
                              to="/teams/search"
                    >
                              Find teams
                    </Link>
                    <div
                              className="ml1"
                    >
                              |
                    </div>
                    <Link
                              className="ml1 no-underline black"
                              replace={false}
                              to="/teams/new"
                    >
                              New team
                    </Link>
          </div>
          <div
                    className="flex flex-fixed"
          >
                    <button
                              className="ml1 pointer black"
                              onClick={[Function]}
                    >
                              Sign out
                    </button>
          </div>
</div>,
        "_debugID": 4,
        "_renderedOutput": <div
          className="flex pa1 justify-between nowrap orange"
>
          <div
                    className="flex flex-fixed black"
          >
                    <Link
                              className="ml1 no-underline black"
                              replace={false}
                              to="/"
                    >
                              Home
                    </Link>
                    <div
                              className="ml1"
                    >
                              |
                    </div>
                    <Link
                              className="ml1 no-underline black"
                              replace={false}
                              to="/teams/search"
                    >
                              Find teams
                    </Link>
                    <div
                              className="ml1"
                    >
                              |
                    </div>
                    <Link
                              className="ml1 no-underline black"
                              replace={false}
                              to="/teams/new"
                    >
                              New team
                    </Link>
          </div>
          <div
                    className="flex flex-fixed"
          >
                    <button
                              className="ml1 pointer black"
                              onClick={[Function]}
                    >
                              Sign out
                    </button>
          </div>
</div>,
      },
      "_renderedNodeType": 0,
      "_rootNodeID": 0,
      "_topLevelWrapper": null,
      "_updateBatchNumber": null,
      "_warnedAboutRefsInRender": false,
    },
    "getRenderOutput": [Function],
    "render": [Function],
  },
  "root": [Circular],
  "unrendered": <Header_ />,
}
`;
